/*
WARNING: Do NOT edit the input and output ports in this file in a text
editor if you plan to continue editing the block that represents it in
the Block Editor! File corruption is VERY likely to occur.
*/
/*
Copyright (C) 2017  Intel Corporation. All rights reserved.
Your use of Intel Corporation's design tools, logic functions 
and other software and tools, and its AMPP partner logic 
functions, and any output files from any of the foregoing 
(including device programming or simulation files), and any 
associated documentation or information are expressly subject 
to the terms and conditions of the Intel Program License 
Subscription Agreement, the Intel Quartus Prime License Agreement,
the Intel MegaCore Function License Agreement, or other 
applicable license agreement, including, without limitation, 
that your use is for the sole purpose of programming logic 
devices manufactured by Intel and sold by Intel or its 
authorized distributors.  Please refer to the applicable 
agreement for further details.
*/
(header "graphic" (version "1.4"))
(pin
	(input)
	(rect 280 272 464 288)
	(text "INPUT" (rect 141 0 170 9)(font "Arial" (font_size 6)))
	(text "VME_Add[23..1]" (rect 5 0 85 10)(font "Arial" ))
	(pt 184 8)
	(drawing
		(line (pt 100 12)(pt 125 12))
		(line (pt 100 4)(pt 125 4))
		(line (pt 129 8)(pt 184 8))
		(line (pt 100 12)(pt 100 4))
		(line (pt 125 4)(pt 129 8))
		(line (pt 125 12)(pt 129 8))
	)
	(text "VCC" (rect 144 7 165 16)(font "Arial" (font_size 6)))
)
(pin
	(input)
	(rect 296 384 464 400)
	(text "INPUT" (rect 125 0 154 9)(font "Arial" (font_size 6)))
	(text "VME_IACKn" (rect 5 0 66 10)(font "Arial" ))
	(pt 168 8)
	(drawing
		(line (pt 84 12)(pt 109 12))
		(line (pt 84 4)(pt 109 4))
		(line (pt 113 8)(pt 168 8))
		(line (pt 84 12)(pt 84 4))
		(line (pt 109 4)(pt 113 8))
		(line (pt 109 12)(pt 113 8))
	)
	(text "VCC" (rect 128 7 149 16)(font "Arial" (font_size 6)))
)
(pin
	(input)
	(rect 296 336 464 352)
	(text "INPUT" (rect 125 0 154 9)(font "Arial" (font_size 6)))
	(text "VME_DS0n" (rect 5 0 61 10)(font "Arial" ))
	(pt 168 8)
	(drawing
		(line (pt 84 12)(pt 109 12))
		(line (pt 84 4)(pt 109 4))
		(line (pt 113 8)(pt 168 8))
		(line (pt 84 12)(pt 84 4))
		(line (pt 109 4)(pt 113 8))
		(line (pt 109 12)(pt 113 8))
	)
	(text "VCC" (rect 128 7 149 16)(font "Arial" (font_size 6)))
)
(pin
	(input)
	(rect 296 352 464 368)
	(text "INPUT" (rect 125 0 154 9)(font "Arial" (font_size 6)))
	(text "VME_DS1n" (rect 5 0 61 10)(font "Arial" ))
	(pt 168 8)
	(drawing
		(line (pt 84 12)(pt 109 12))
		(line (pt 84 4)(pt 109 4))
		(line (pt 113 8)(pt 168 8))
		(line (pt 84 12)(pt 84 4))
		(line (pt 109 4)(pt 113 8))
		(line (pt 109 12)(pt 113 8))
	)
	(text "VCC" (rect 128 7 149 16)(font "Arial" (font_size 6)))
)
(pin
	(input)
	(rect 296 400 464 416)
	(text "INPUT" (rect 125 0 154 9)(font "Arial" (font_size 6)))
	(text "VME_IACKINn" (rect 5 0 78 10)(font "Arial" ))
	(pt 168 8)
	(drawing
		(line (pt 84 12)(pt 109 12))
		(line (pt 84 4)(pt 109 4))
		(line (pt 113 8)(pt 168 8))
		(line (pt 84 12)(pt 84 4))
		(line (pt 109 4)(pt 113 8))
		(line (pt 109 12)(pt 113 8))
	)
	(text "VCC" (rect 128 7 149 16)(font "Arial" (font_size 6)))
)
(pin
	(input)
	(rect 288 288 464 304)
	(text "INPUT" (rect 133 0 162 9)(font "Arial" (font_size 6)))
	(text "VME_AM[5..0]" (rect 5 0 75 10)(font "Arial" ))
	(pt 176 8)
	(drawing
		(line (pt 92 12)(pt 117 12))
		(line (pt 92 4)(pt 117 4))
		(line (pt 121 8)(pt 176 8))
		(line (pt 92 12)(pt 92 4))
		(line (pt 117 4)(pt 121 8))
		(line (pt 117 12)(pt 121 8))
	)
	(text "VCC" (rect 136 7 157 16)(font "Arial" (font_size 6)))
)
(pin
	(input)
	(rect 296 416 464 432)
	(text "INPUT" (rect 125 0 154 9)(font "Arial" (font_size 6)))
	(text "VME_RESETn" (rect 5 0 75 10)(font "Arial" ))
	(pt 168 8)
	(drawing
		(line (pt 84 12)(pt 109 12))
		(line (pt 84 4)(pt 109 4))
		(line (pt 113 8)(pt 168 8))
		(line (pt 84 12)(pt 84 4))
		(line (pt 109 4)(pt 113 8))
		(line (pt 109 12)(pt 113 8))
	)
	(text "VCC" (rect 128 7 149 16)(font "Arial" (font_size 6)))
)
(pin
	(input)
	(rect 296 368 464 384)
	(text "INPUT" (rect 125 0 154 9)(font "Arial" (font_size 6)))
	(text "VME_ASn" (rect 5 0 54 10)(font "Arial" ))
	(pt 168 8)
	(drawing
		(line (pt 84 12)(pt 109 12))
		(line (pt 84 4)(pt 109 4))
		(line (pt 113 8)(pt 168 8))
		(line (pt 84 12)(pt 84 4))
		(line (pt 109 4)(pt 113 8))
		(line (pt 109 12)(pt 113 8))
	)
	(text "VCC" (rect 128 7 149 16)(font "Arial" (font_size 6)))
)
(pin
	(input)
	(rect 288 304 464 320)
	(text "INPUT" (rect 133 0 162 9)(font "Arial" (font_size 6)))
	(text "VME_LWORDn" (rect 5 0 81 10)(font "Arial" ))
	(pt 176 8)
	(drawing
		(line (pt 92 12)(pt 117 12))
		(line (pt 92 4)(pt 117 4))
		(line (pt 121 8)(pt 176 8))
		(line (pt 92 12)(pt 92 4))
		(line (pt 117 4)(pt 121 8))
		(line (pt 117 12)(pt 121 8))
	)
	(text "VCC" (rect 136 7 157 16)(font "Arial" (font_size 6)))
)
(pin
	(input)
	(rect 256 648 440 664)
	(text "INPUT" (rect 141 0 170 9)(font "Arial" (font_size 6)))
	(text "MOD_SEL[23..16]" (rect 5 0 94 10)(font "Arial" ))
	(pt 184 8)
	(drawing
		(line (pt 100 12)(pt 125 12))
		(line (pt 100 4)(pt 125 4))
		(line (pt 129 8)(pt 184 8))
		(line (pt 100 12)(pt 100 4))
		(line (pt 125 4)(pt 129 8))
		(line (pt 125 12)(pt 129 8))
	)
	(text "VCC" (rect 144 7 165 16)(font "Arial" (font_size 6)))
)
(pin
	(input)
	(rect 296 320 464 336)
	(text "INPUT" (rect 125 0 154 9)(font "Arial" (font_size 6)))
	(text "VME_WRn" (rect 5 0 59 10)(font "Arial" ))
	(pt 168 8)
	(drawing
		(line (pt 84 12)(pt 109 12))
		(line (pt 84 4)(pt 109 4))
		(line (pt 113 8)(pt 168 8))
		(line (pt 84 12)(pt 84 4))
		(line (pt 109 4)(pt 113 8))
		(line (pt 109 12)(pt 113 8))
	)
	(text "VCC" (rect 128 7 149 16)(font "Arial" (font_size 6)))
)
(pin
	(input)
	(rect 288 456 456 472)
	(text "INPUT" (rect 125 0 154 9)(font "Arial" (font_size 6)))
	(text "P1_GA1n" (rect 5 0 52 10)(font "Arial" ))
	(pt 168 8)
	(drawing
		(line (pt 84 12)(pt 109 12))
		(line (pt 84 4)(pt 109 4))
		(line (pt 113 8)(pt 168 8))
		(line (pt 84 12)(pt 84 4))
		(line (pt 109 4)(pt 113 8))
		(line (pt 109 12)(pt 113 8))
	)
	(text "VCC" (rect 128 7 149 16)(font "Arial" (font_size 6)))
)
(pin
	(input)
	(rect 288 520 456 536)
	(text "INPUT" (rect 125 0 154 9)(font "Arial" (font_size 6)))
	(text "P1_GAPn" (rect 5 0 53 10)(font "Arial" ))
	(pt 168 8)
	(drawing
		(line (pt 84 12)(pt 109 12))
		(line (pt 84 4)(pt 109 4))
		(line (pt 113 8)(pt 168 8))
		(line (pt 84 12)(pt 84 4))
		(line (pt 109 4)(pt 113 8))
		(line (pt 109 12)(pt 113 8))
	)
	(text "VCC" (rect 128 7 149 16)(font "Arial" (font_size 6)))
)
(pin
	(input)
	(rect 536 144 712 160)
	(text "INPUT" (rect 133 0 162 9)(font "Arial" (font_size 6)))
	(text "CLK_48MHz" (rect 5 0 66 10)(font "Arial" ))
	(pt 176 8)
	(drawing
		(line (pt 92 12)(pt 117 12))
		(line (pt 92 4)(pt 117 4))
		(line (pt 121 8)(pt 176 8))
		(line (pt 92 12)(pt 92 4))
		(line (pt 117 4)(pt 121 8))
		(line (pt 117 12)(pt 121 8))
	)
	(text "VCC" (rect 136 7 157 16)(font "Arial" (font_size 6)))
)
(pin
	(input)
	(rect 288 440 456 456)
	(text "INPUT" (rect 125 0 154 9)(font "Arial" (font_size 6)))
	(text "P1_GA0n" (rect 5 0 52 10)(font "Arial" ))
	(pt 168 8)
	(drawing
		(line (pt 84 12)(pt 109 12))
		(line (pt 84 4)(pt 109 4))
		(line (pt 113 8)(pt 168 8))
		(line (pt 84 12)(pt 84 4))
		(line (pt 109 4)(pt 113 8))
		(line (pt 109 12)(pt 113 8))
	)
	(text "VCC" (rect 128 7 149 16)(font "Arial" (font_size 6)))
)
(pin
	(input)
	(rect 288 504 456 520)
	(text "INPUT" (rect 125 0 154 9)(font "Arial" (font_size 6)))
	(text "P1_GA4n" (rect 5 0 52 10)(font "Arial" ))
	(pt 168 8)
	(drawing
		(line (pt 84 12)(pt 109 12))
		(line (pt 84 4)(pt 109 4))
		(line (pt 113 8)(pt 168 8))
		(line (pt 84 12)(pt 84 4))
		(line (pt 109 4)(pt 113 8))
		(line (pt 109 12)(pt 113 8))
	)
	(text "VCC" (rect 128 7 149 16)(font "Arial" (font_size 6)))
)
(pin
	(input)
	(rect 288 472 456 488)
	(text "INPUT" (rect 125 0 154 9)(font "Arial" (font_size 6)))
	(text "P1_GA2n" (rect 5 0 52 10)(font "Arial" ))
	(pt 168 8)
	(drawing
		(line (pt 84 12)(pt 109 12))
		(line (pt 84 4)(pt 109 4))
		(line (pt 113 8)(pt 168 8))
		(line (pt 84 12)(pt 84 4))
		(line (pt 109 4)(pt 113 8))
		(line (pt 109 12)(pt 113 8))
	)
	(text "VCC" (rect 128 7 149 16)(font "Arial" (font_size 6)))
)
(pin
	(input)
	(rect 288 488 456 504)
	(text "INPUT" (rect 125 0 154 9)(font "Arial" (font_size 6)))
	(text "P1_GA3n" (rect 5 0 52 10)(font "Arial" ))
	(pt 168 8)
	(drawing
		(line (pt 84 12)(pt 109 12))
		(line (pt 84 4)(pt 109 4))
		(line (pt 113 8)(pt 168 8))
		(line (pt 84 12)(pt 84 4))
		(line (pt 109 4)(pt 113 8))
		(line (pt 109 12)(pt 113 8))
	)
	(text "VCC" (rect 128 7 149 16)(font "Arial" (font_size 6)))
)
(pin
	(input)
	(rect 944 192 1112 208)
	(text "INPUT" (rect 125 0 154 9)(font "Arial" (font_size 6)))
	(text "BLST_TDI" (rect 5 0 54 10)(font "Arial" ))
	(pt 168 8)
	(drawing
		(line (pt 84 12)(pt 109 12))
		(line (pt 84 4)(pt 109 4))
		(line (pt 113 8)(pt 168 8))
		(line (pt 84 12)(pt 84 4))
		(line (pt 109 4)(pt 113 8))
		(line (pt 109 12)(pt 113 8))
	)
	(text "VCC" (rect 128 7 149 16)(font "Arial" (font_size 6)))
)
(pin
	(input)
	(rect 944 136 1112 152)
	(text "INPUT" (rect 125 0 154 9)(font "Arial" (font_size 6)))
	(text "USB_ENB" (rect 5 0 56 10)(font "Arial" ))
	(pt 168 8)
	(drawing
		(line (pt 84 12)(pt 109 12))
		(line (pt 84 4)(pt 109 4))
		(line (pt 113 8)(pt 168 8))
		(line (pt 84 12)(pt 84 4))
		(line (pt 109 4)(pt 113 8))
		(line (pt 109 12)(pt 113 8))
	)
	(text "VCC" (rect 128 7 149 16)(font "Arial" (font_size 6)))
)
(pin
	(input)
	(rect 280 248 464 264)
	(text "INPUT" (rect 141 0 170 9)(font "Arial" (font_size 6)))
	(text "VDTACKn_Mon" (rect 5 0 81 10)(font "Arial" ))
	(pt 184 8)
	(drawing
		(line (pt 100 12)(pt 125 12))
		(line (pt 100 4)(pt 125 4))
		(line (pt 129 8)(pt 184 8))
		(line (pt 100 12)(pt 100 4))
		(line (pt 125 4)(pt 129 8))
		(line (pt 125 12)(pt 129 8))
	)
	(text "VCC" (rect 144 7 165 16)(font "Arial" (font_size 6)))
)
(pin
	(input)
	(rect 536 264 736 280)
	(text "INPUT" (rect 157 0 186 9)(font "Arial" (font_size 6)))
	(text "USB_HUB_SPND" (rect 5 0 94 10)(font "Arial" ))
	(pt 200 8)
	(drawing
		(line (pt 116 12)(pt 141 12))
		(line (pt 116 4)(pt 141 4))
		(line (pt 145 8)(pt 200 8))
		(line (pt 116 12)(pt 116 4))
		(line (pt 141 4)(pt 145 8))
		(line (pt 141 12)(pt 145 8))
	)
	(text "VCC" (rect 160 7 181 16)(font "Arial" (font_size 6)))
)
(pin
	(input)
	(rect 552 344 760 360)
	(text "INPUT" (rect 165 0 194 9)(font "Arial" (font_size 6)))
	(text "USB_FIFO_RXFn" (rect 5 0 93 10)(font "Arial" ))
	(pt 208 8)
	(drawing
		(line (pt 124 12)(pt 149 12))
		(line (pt 124 4)(pt 149 4))
		(line (pt 153 8)(pt 208 8))
		(line (pt 124 12)(pt 124 4))
		(line (pt 149 4)(pt 153 8))
		(line (pt 149 12)(pt 153 8))
	)
	(text "VCC" (rect 168 7 189 16)(font "Arial" (font_size 6)))
)
(pin
	(input)
	(rect 552 360 760 376)
	(text "INPUT" (rect 165 0 194 9)(font "Arial" (font_size 6)))
	(text "USB_FIFO_TXEn" (rect 5 0 91 10)(font "Arial" ))
	(pt 208 8)
	(drawing
		(line (pt 124 12)(pt 149 12))
		(line (pt 124 4)(pt 149 4))
		(line (pt 153 8)(pt 208 8))
		(line (pt 124 12)(pt 124 4))
		(line (pt 149 4)(pt 153 8))
		(line (pt 149 12)(pt 153 8))
	)
	(text "VCC" (rect 168 7 189 16)(font "Arial" (font_size 6)))
)
(pin
	(output)
	(rect 280 184 466 200)
	(text "OUTPUT" (rect 1 0 41 9)(font "Arial" (font_size 6)))
	(text "VME_245_OEn" (rect 90 0 164 10)(font "Arial" ))
	(pt 0 8)
	(drawing
		(line (pt 0 8)(pt 52 8))
		(line (pt 52 4)(pt 78 4))
		(line (pt 52 12)(pt 78 12))
		(line (pt 52 12)(pt 52 4))
		(line (pt 78 4)(pt 82 8))
		(line (pt 82 8)(pt 78 12))
		(line (pt 78 12)(pt 82 8))
	)
)
(pin
	(output)
	(rect 280 152 475 168)
	(text "OUTPUT" (rect 1 0 41 9)(font "Arial" (font_size 6)))
	(text "VME_DATA_DIR" (rect 90 0 173 10)(font "Arial" ))
	(pt 0 8)
	(drawing
		(line (pt 0 8)(pt 52 8))
		(line (pt 52 4)(pt 78 4))
		(line (pt 52 12)(pt 78 12))
		(line (pt 52 12)(pt 52 4))
		(line (pt 78 4)(pt 82 8))
		(line (pt 82 8)(pt 78 12))
		(line (pt 78 12)(pt 82 8))
	)
)
(pin
	(output)
	(rect 288 232 466 248)
	(text "OUTPUT" (rect 1 0 41 9)(font "Arial" (font_size 6)))
	(text "VME_DTACKn" (rect 90 0 161 10)(font "Arial" ))
	(pt 0 8)
	(drawing
		(line (pt 0 8)(pt 52 8))
		(line (pt 52 4)(pt 78 4))
		(line (pt 52 12)(pt 78 12))
		(line (pt 52 12)(pt 52 4))
		(line (pt 78 4)(pt 82 8))
		(line (pt 82 8)(pt 78 12))
		(line (pt 78 12)(pt 82 8))
	)
)
(pin
	(output)
	(rect 640 216 816 232)
	(text "OUTPUT" (rect 1 0 41 9)(font "Arial" (font_size 6)))
	(text "USB_48MHz" (rect 90 0 152 10)(font "Arial" ))
	(pt 0 8)
	(drawing
		(line (pt 0 8)(pt 52 8))
		(line (pt 52 4)(pt 78 4))
		(line (pt 52 12)(pt 78 12))
		(line (pt 52 12)(pt 52 4))
		(line (pt 78 4)(pt 82 8))
		(line (pt 82 8)(pt 78 12))
		(line (pt 78 12)(pt 82 8))
	)
)
(pin
	(output)
	(rect 1208 208 1384 224)
	(text "OUTPUT" (rect 1 0 41 9)(font "Arial" (font_size 6)))
	(text "BLST_TMS" (rect 90 0 144 10)(font "Arial" ))
	(pt 0 8)
	(drawing
		(line (pt 0 8)(pt 52 8))
		(line (pt 52 4)(pt 78 4))
		(line (pt 52 12)(pt 78 12))
		(line (pt 52 12)(pt 52 4))
		(line (pt 78 4)(pt 82 8))
		(line (pt 82 8)(pt 78 12))
		(line (pt 78 12)(pt 82 8))
	)
)
(pin
	(output)
	(rect 296 560 472 576)
	(text "OUTPUT" (rect 1 0 41 9)(font "Arial" (font_size 6)))
	(text "VME_LED" (rect 90 0 140 10)(font "Arial" ))
	(pt 0 8)
	(drawing
		(line (pt 0 8)(pt 52 8))
		(line (pt 52 4)(pt 78 4))
		(line (pt 52 12)(pt 78 12))
		(line (pt 52 12)(pt 52 4))
		(line (pt 78 4)(pt 82 8))
		(line (pt 82 8)(pt 78 12))
		(line (pt 78 12)(pt 82 8))
	)
)
(pin
	(output)
	(rect 1208 192 1384 208)
	(text "OUTPUT" (rect 1 0 41 9)(font "Arial" (font_size 6)))
	(text "BLST_TDO" (rect 90 0 145 10)(font "Arial" ))
	(pt 0 8)
	(drawing
		(line (pt 0 8)(pt 52 8))
		(line (pt 52 4)(pt 78 4))
		(line (pt 52 12)(pt 78 12))
		(line (pt 52 12)(pt 52 4))
		(line (pt 78 4)(pt 82 8))
		(line (pt 82 8)(pt 78 12))
		(line (pt 78 12)(pt 82 8))
	)
)
(pin
	(output)
	(rect 1208 224 1384 240)
	(text "OUTPUT" (rect 1 0 41 9)(font "Arial" (font_size 6)))
	(text "BLST_TCK" (rect 90 0 144 10)(font "Arial" ))
	(pt 0 8)
	(drawing
		(line (pt 0 8)(pt 52 8))
		(line (pt 52 4)(pt 78 4))
		(line (pt 52 12)(pt 78 12))
		(line (pt 52 12)(pt 52 4))
		(line (pt 78 4)(pt 82 8))
		(line (pt 82 8)(pt 78 12))
		(line (pt 78 12)(pt 82 8))
	)
)
(pin
	(output)
	(rect 640 232 851 248)
	(text "OUTPUT" (rect 1 0 41 9)(font "Arial" (font_size 6)))
	(text "USB_HUB_RESETn" (rect 90 0 190 10)(font "Arial" ))
	(pt 0 8)
	(drawing
		(line (pt 0 8)(pt 52 8))
		(line (pt 52 4)(pt 78 4))
		(line (pt 52 12)(pt 78 12))
		(line (pt 52 12)(pt 52 4))
		(line (pt 78 4)(pt 82 8))
		(line (pt 82 8)(pt 78 12))
		(line (pt 78 12)(pt 82 8))
	)
)
(pin
	(output)
	(rect 616 392 792 408)
	(text "OUTPUT" (rect 1 0 41 9)(font "Arial" (font_size 6)))
	(text "USB_RDn" (rect 90 0 141 10)(font "Arial" ))
	(pt 0 8)
	(drawing
		(line (pt 0 8)(pt 52 8))
		(line (pt 52 4)(pt 78 4))
		(line (pt 52 12)(pt 78 12))
		(line (pt 52 12)(pt 52 4))
		(line (pt 78 4)(pt 82 8))
		(line (pt 82 8)(pt 78 12))
		(line (pt 78 12)(pt 82 8))
	)
)
(pin
	(output)
	(rect 616 408 792 424)
	(text "OUTPUT" (rect 1 0 41 9)(font "Arial" (font_size 6)))
	(text "USB_Wr" (rect 90 0 133 10)(font "Arial" ))
	(pt 0 8)
	(drawing
		(line (pt 0 8)(pt 52 8))
		(line (pt 52 4)(pt 78 4))
		(line (pt 52 12)(pt 78 12))
		(line (pt 52 12)(pt 52 4))
		(line (pt 78 4)(pt 82 8))
		(line (pt 82 8)(pt 78 12))
		(line (pt 78 12)(pt 82 8))
	)
)
(pin
	(output)
	(rect 1208 136 1384 152)
	(text "OUTPUT" (rect 1 0 41 9)(font "Arial" (font_size 6)))
	(text "USB_ENBn" (rect 90 0 147 10)(font "Arial" ))
	(pt 0 8)
	(drawing
		(line (pt 0 8)(pt 52 8))
		(line (pt 52 4)(pt 78 4))
		(line (pt 52 12)(pt 78 12))
		(line (pt 52 12)(pt 52 4))
		(line (pt 78 4)(pt 82 8))
		(line (pt 82 8)(pt 78 12))
		(line (pt 78 12)(pt 82 8))
	)
)
(pin
	(bidir)
	(rect 288 216 464 232)
	(text "BIDIR" (rect 1 0 26 9)(font "Arial" (font_size 6)))
	(text "VME_D[15..0]" (rect 90 0 159 10)(font "Arial" ))
	(pt 0 8)
	(drawing
		(line (pt 56 4)(pt 78 4))
		(line (pt 0 8)(pt 52 8))
		(line (pt 56 12)(pt 78 12))
		(line (pt 78 4)(pt 82 8))
		(line (pt 78 12)(pt 82 8))
		(line (pt 56 4)(pt 52 8))
		(line (pt 52 8)(pt 56 12))
	)
	(text "VCC" (rect 4 7 25 16)(font "Arial" (font_size 6)))
)
(pin
	(bidir)
	(rect 944 312 1155 328)
	(text "BIDIR" (rect 1 0 26 9)(font "Arial" (font_size 6)))
	(text "MAXV_IO[10..0]" (rect 90 0 169 10)(font "Arial" ))
	(pt 0 8)
	(drawing
		(line (pt 56 4)(pt 78 4))
		(line (pt 0 8)(pt 52 8))
		(line (pt 56 12)(pt 78 12))
		(line (pt 78 4)(pt 82 8))
		(line (pt 78 12)(pt 82 8))
		(line (pt 56 4)(pt 52 8))
		(line (pt 52 8)(pt 56 12))
	)
	(text "VCC" (rect 4 7 25 16)(font "Arial" (font_size 6)))
)
(pin
	(bidir)
	(rect 616 320 844 336)
	(text "BIDIR" (rect 1 0 26 9)(font "Arial" (font_size 6)))
	(text "USB_FIFO_D[7..0]" (rect 90 0 185 10)(font "Arial" ))
	(pt 0 8)
	(drawing
		(line (pt 56 4)(pt 78 4))
		(line (pt 0 8)(pt 52 8))
		(line (pt 56 12)(pt 78 12))
		(line (pt 78 4)(pt 82 8))
		(line (pt 78 12)(pt 82 8))
		(line (pt 56 4)(pt 52 8))
		(line (pt 52 8)(pt 56 12))
	)
	(text "VCC" (rect 4 7 25 16)(font "Arial" (font_size 6)))
)
(pin
	(bidir)
	(rect 248 752 424 768)
	(text "BIDIR" (rect 1 0 26 9)(font "Arial" (font_size 6)))
	(text "FPGA_nCONFIG" (rect 90 0 167 12)(font "Intel Clear" ))
	(pt 0 8)
	(drawing
		(line (pt 56 4)(pt 78 4))
		(line (pt 0 8)(pt 52 8))
		(line (pt 56 12)(pt 78 12))
		(line (pt 78 4)(pt 82 8))
		(line (pt 78 12)(pt 82 8))
		(line (pt 56 4)(pt 52 8))
		(line (pt 52 8)(pt 56 12))
	)
	(text "VCC" (rect 4 7 25 16)(font "Arial" (font_size 6)))
)
(pin
	(bidir)
	(rect 248 776 424 792)
	(text "BIDIR" (rect 1 0 26 9)(font "Arial" (font_size 6)))
	(text "FPGA_nSTATUS" (rect 90 0 167 12)(font "Intel Clear" ))
	(pt 0 8)
	(drawing
		(line (pt 56 4)(pt 78 4))
		(line (pt 0 8)(pt 52 8))
		(line (pt 56 12)(pt 78 12))
		(line (pt 78 4)(pt 82 8))
		(line (pt 78 12)(pt 82 8))
		(line (pt 56 4)(pt 52 8))
		(line (pt 52 8)(pt 56 12))
	)
	(text "VCC" (rect 4 7 25 16)(font "Arial" (font_size 6)))
)
(pin
	(bidir)
	(rect 248 800 440 816)
	(text "BIDIR" (rect 1 0 26 9)(font "Arial" (font_size 6)))
	(text "FPGA_CONF_DONE" (rect 90 0 186 12)(font "Intel Clear" ))
	(pt 0 8)
	(drawing
		(line (pt 56 4)(pt 78 4))
		(line (pt 0 8)(pt 52 8))
		(line (pt 56 12)(pt 78 12))
		(line (pt 78 4)(pt 82 8))
		(line (pt 78 12)(pt 82 8))
		(line (pt 56 4)(pt 52 8))
		(line (pt 52 8)(pt 56 12))
	)
	(text "VCC" (rect 4 7 25 16)(font "Arial" (font_size 6)))
)
(symbol
	(rect 264 176 280 208)
	(text "VCC" (rect 0 5 9 26)(font "Arial" (font_size 6))(vertical))
	(text "inst6" (rect 5 6 15 30)(font "Arial" )(vertical)(invisible))
	(port
		(pt 16 16)
		(output)
		(text "1" (rect 19 7 26 18)(font "Courier New" (bold))(invisible))
		(text "1" (rect 7 8 18 15)(font "Courier New" (bold))(vertical)(invisible))
		(line (pt 16 16)(pt 8 16))
	)
	(drawing
		(line (pt 8 24)(pt 8 8))
	)
	(rotate90)
)
(symbol
	(rect 264 144 280 176)
	(text "VCC" (rect 0 5 9 26)(font "Arial" (font_size 6))(vertical))
	(text "inst7" (rect 5 6 15 30)(font "Arial" )(vertical)(invisible))
	(port
		(pt 16 16)
		(output)
		(text "1" (rect 19 7 26 18)(font "Courier New" (bold))(invisible))
		(text "1" (rect 7 8 18 15)(font "Courier New" (bold))(vertical)(invisible))
		(line (pt 16 16)(pt 8 16))
	)
	(drawing
		(line (pt 8 24)(pt 8 8))
	)
	(rotate90)
)
(symbol
	(rect 256 224 272 256)
	(text "VCC" (rect 0 5 9 26)(font "Arial" (font_size 6))(vertical))
	(text "inst9" (rect 5 6 15 30)(font "Arial" )(vertical)(invisible))
	(port
		(pt 16 16)
		(output)
		(text "1" (rect 19 7 26 18)(font "Courier New" (bold))(invisible))
		(text "1" (rect 7 8 18 15)(font "Courier New" (bold))(vertical)(invisible))
		(line (pt 16 16)(pt 8 16))
	)
	(drawing
		(line (pt 8 24)(pt 8 8))
	)
	(rotate90)
)
(symbol
	(rect 568 384 584 416)
	(text "VCC" (rect 0 1 9 22)(font "Arial" (font_size 6))(vertical))
	(text "inst22" (rect 5 -20 15 10)(font "Arial" )(vertical)(invisible))
	(port
		(pt 16 16)
		(output)
		(text "1" (rect 19 7 26 18)(font "Courier New" (bold))(invisible))
		(text "1" (rect 7 8 18 15)(font "Courier New" (bold))(vertical)(invisible))
		(line (pt 16 16)(pt 8 16))
	)
	(drawing
		(line (pt 8 24)(pt 8 8))
	)
	(rotate90)
)
(symbol
	(rect 1008 664 1072 744)
	(text "DFF" (rect 1 0 21 9)(font "Arial" (font_size 6)))
	(text "inst3" (rect 3 68 27 78)(font "Arial" ))
	(port
		(pt 32 80)
		(input)
		(text "CLRN" (rect 21 59 45 70)(font "Courier New" (bold)))
		(text "CLRN" (rect 21 58 45 69)(font "Courier New" (bold)))
		(line (pt 32 80)(pt 32 76))
	)
	(port
		(pt 0 40)
		(input)
		(text "CLK" (rect 3 29 21 40)(font "Courier New" (bold))(invisible))
		(text "CLK" (rect 3 29 21 40)(font "Courier New" (bold))(invisible))
		(line (pt 0 40)(pt 12 40))
	)
	(port
		(pt 0 24)
		(input)
		(text "D" (rect 14 20 21 31)(font "Courier New" (bold)))
		(text "D" (rect 14 20 21 31)(font "Courier New" (bold)))
		(line (pt 0 24)(pt 12 24))
	)
	(port
		(pt 32 0)
		(input)
		(text "PRN" (rect 24 13 42 24)(font "Courier New" (bold)))
		(text "PRN" (rect 24 11 42 22)(font "Courier New" (bold)))
		(line (pt 32 4)(pt 32 0))
	)
	(port
		(pt 64 24)
		(output)
		(text "Q" (rect 45 20 52 31)(font "Courier New" (bold)))
		(text "Q" (rect 43 20 50 31)(font "Courier New" (bold)))
		(line (pt 52 24)(pt 64 24))
	)
	(drawing
		(line (pt 12 12)(pt 52 12))
		(line (pt 12 68)(pt 52 68))
		(line (pt 52 68)(pt 52 12))
		(line (pt 12 68)(pt 12 12))
		(line (pt 19 40)(pt 12 47))
		(line (pt 12 32)(pt 20 40))
		(circle (rect 28 4 36 12))
		(circle (rect 28 68 36 76))
	)
)
(symbol
	(rect 1088 664 1152 744)
	(text "DFF" (rect 1 0 21 9)(font "Arial" (font_size 6)))
	(text "inst4" (rect 3 68 27 78)(font "Arial" ))
	(port
		(pt 32 80)
		(input)
		(text "CLRN" (rect 21 59 45 70)(font "Courier New" (bold)))
		(text "CLRN" (rect 21 58 45 69)(font "Courier New" (bold)))
		(line (pt 32 80)(pt 32 76))
	)
	(port
		(pt 0 40)
		(input)
		(text "CLK" (rect 3 29 21 40)(font "Courier New" (bold))(invisible))
		(text "CLK" (rect 3 29 21 40)(font "Courier New" (bold))(invisible))
		(line (pt 0 40)(pt 12 40))
	)
	(port
		(pt 0 24)
		(input)
		(text "D" (rect 14 20 21 31)(font "Courier New" (bold)))
		(text "D" (rect 14 20 21 31)(font "Courier New" (bold)))
		(line (pt 0 24)(pt 12 24))
	)
	(port
		(pt 32 0)
		(input)
		(text "PRN" (rect 24 13 42 24)(font "Courier New" (bold)))
		(text "PRN" (rect 24 11 42 22)(font "Courier New" (bold)))
		(line (pt 32 4)(pt 32 0))
	)
	(port
		(pt 64 24)
		(output)
		(text "Q" (rect 45 20 52 31)(font "Courier New" (bold)))
		(text "Q" (rect 43 20 50 31)(font "Courier New" (bold)))
		(line (pt 52 24)(pt 64 24))
	)
	(drawing
		(line (pt 12 12)(pt 52 12))
		(line (pt 12 68)(pt 52 68))
		(line (pt 52 68)(pt 52 12))
		(line (pt 12 68)(pt 12 12))
		(line (pt 19 40)(pt 12 47))
		(line (pt 12 32)(pt 20 40))
		(circle (rect 28 4 36 12))
		(circle (rect 28 68 36 76))
	)
)
(symbol
	(rect 1160 672 1208 704)
	(text "NOT" (rect 1 0 22 9)(font "Arial" (font_size 6)))
	(text "inst8" (rect 3 21 27 31)(font "Arial" ))
	(port
		(pt 0 16)
		(input)
		(text "IN" (rect 2 7 14 18)(font "Courier New" (bold))(invisible))
		(text "IN" (rect 2 7 14 18)(font "Courier New" (bold))(invisible))
		(line (pt 0 16)(pt 13 16))
	)
	(port
		(pt 48 16)
		(output)
		(text "OUT" (rect 32 7 50 18)(font "Courier New" (bold))(invisible))
		(text "OUT" (rect 32 7 50 18)(font "Courier New" (bold))(invisible))
		(line (pt 39 16)(pt 48 16))
	)
	(drawing
		(line (pt 13 25)(pt 13 7))
		(line (pt 13 7)(pt 31 16))
		(line (pt 13 25)(pt 31 16))
		(circle (rect 31 12 39 20))
	)
)
(symbol
	(rect 1224 624 1288 672)
	(text "NAND2" (rect 1 0 34 9)(font "Arial" (font_size 6)))
	(text "inst10" (rect 3 37 33 47)(font "Arial" ))
	(port
		(pt 0 32)
		(input)
		(text "IN2" (rect 2 23 20 34)(font "Courier New" (bold))(invisible))
		(text "IN2" (rect 2 23 20 34)(font "Courier New" (bold))(invisible))
		(line (pt 0 32)(pt 15 32))
	)
	(port
		(pt 0 16)
		(input)
		(text "IN1" (rect 2 7 20 18)(font "Courier New" (bold))(invisible))
		(text "IN1" (rect 2 7 20 18)(font "Courier New" (bold))(invisible))
		(line (pt 0 16)(pt 15 16))
	)
	(port
		(pt 64 24)
		(output)
		(text "OUT" (rect 48 15 66 26)(font "Courier New" (bold))(invisible))
		(text "OUT" (rect 48 15 66 26)(font "Courier New" (bold))(invisible))
		(line (pt 52 24)(pt 64 24))
	)
	(drawing
		(line (pt 15 37)(pt 32 37))
		(line (pt 15 12)(pt 32 12))
		(line (pt 15 36)(pt 15 12))
		(arc (pt 32 36)(pt 32 12)(rect 20 12 45 37))
		(circle (rect 44 20 52 28))
	)
)
(symbol
	(rect 672 640 720 672)
	(text "NOT" (rect 1 0 22 9)(font "Arial" (font_size 6)))
	(text "inst12" (rect 3 21 33 31)(font "Arial" ))
	(port
		(pt 0 16)
		(input)
		(text "IN" (rect 2 7 14 18)(font "Courier New" (bold))(invisible))
		(text "IN" (rect 2 7 14 18)(font "Courier New" (bold))(invisible))
		(line (pt 0 16)(pt 13 16))
	)
	(port
		(pt 48 16)
		(output)
		(text "OUT" (rect 32 7 50 18)(font "Courier New" (bold))(invisible))
		(text "OUT" (rect 32 7 50 18)(font "Courier New" (bold))(invisible))
		(line (pt 39 16)(pt 48 16))
	)
	(drawing
		(line (pt 13 25)(pt 13 7))
		(line (pt 13 7)(pt 31 16))
		(line (pt 13 25)(pt 31 16))
		(circle (rect 31 12 39 20))
	)
)
(symbol
	(rect 736 592 880 688)
	(text "Reset_Cnt" (rect 43 0 116 15)(font "Arial" (font_size 10)))
	(text "inst5" (rect 8 78 32 88)(font "Arial" ))
	(port
		(pt 0 32)
		(input)
		(text "clock" (rect 0 0 31 12)(font "Arial" (font_size 8)))
		(text "clock" (rect 26 25 57 37)(font "Arial" (font_size 8)))
		(line (pt 0 32)(pt 16 32))
	)
	(port
		(pt 0 64)
		(input)
		(text "cnt_en" (rect 0 0 40 12)(font "Arial" (font_size 8)))
		(text "cnt_en" (rect 20 57 60 69)(font "Arial" (font_size 8)))
		(line (pt 0 64)(pt 16 64))
	)
	(port
		(pt 144 56)
		(output)
		(text "q[25..0]" (rect 0 0 43 12)(font "Arial" (font_size 8)))
		(text "q[25..0]" (rect 89 49 132 61)(font "Arial" (font_size 8)))
		(line (pt 144 56)(pt 128 56)(line_width 3))
	)
	(drawing
		(text "up counter" (rect 84 22 137 32)(font "Arial" ))
		(line (pt 16 16)(pt 16 80))
		(line (pt 16 16)(pt 128 16))
		(line (pt 16 80)(pt 128 80))
		(line (pt 128 16)(pt 128 80))
		(line (pt 0 0)(pt 146 0))
		(line (pt 146 0)(pt 146 98))
		(line (pt 0 98)(pt 146 98))
		(line (pt 0 0)(pt 0 98))
		(line (pt 16 26)(pt 22 32))
		(line (pt 22 32)(pt 16 38))
		(line (pt 0 0)(pt 0 0))
		(line (pt 0 0)(pt 0 0))
		(line (pt 0 0)(pt 0 0))
		(line (pt 0 0)(pt 0 0))
	)
)
(symbol
	(rect 1040 424 1184 520)
	(text "Reset_Cnt" (rect 43 0 116 15)(font "Arial" (font_size 10)))
	(text "inst11" (rect 8 78 38 88)(font "Arial" ))
	(port
		(pt 0 32)
		(input)
		(text "clock" (rect 0 0 31 12)(font "Arial" (font_size 8)))
		(text "clock" (rect 26 25 57 37)(font "Arial" (font_size 8)))
		(line (pt 0 32)(pt 16 32))
	)
	(port
		(pt 0 64)
		(input)
		(text "cnt_en" (rect 0 0 40 12)(font "Arial" (font_size 8)))
		(text "cnt_en" (rect 20 57 60 69)(font "Arial" (font_size 8)))
		(line (pt 0 64)(pt 16 64))
	)
	(port
		(pt 144 56)
		(output)
		(text "q[25..0]" (rect 0 0 43 12)(font "Arial" (font_size 8)))
		(text "q[25..0]" (rect 89 49 132 61)(font "Arial" (font_size 8)))
		(line (pt 144 56)(pt 128 56)(line_width 3))
	)
	(drawing
		(text "up counter" (rect 84 22 137 32)(font "Arial" ))
		(line (pt 16 16)(pt 16 80))
		(line (pt 16 16)(pt 128 16))
		(line (pt 16 80)(pt 128 80))
		(line (pt 128 16)(pt 128 80))
		(line (pt 0 0)(pt 146 0))
		(line (pt 146 0)(pt 146 98))
		(line (pt 0 98)(pt 146 98))
		(line (pt 0 0)(pt 0 98))
		(line (pt 16 26)(pt 22 32))
		(line (pt 22 32)(pt 16 38))
		(line (pt 0 0)(pt 0 0))
		(line (pt 0 0)(pt 0 0))
		(line (pt 0 0)(pt 0 0))
		(line (pt 0 0)(pt 0 0))
	)
)
(symbol
	(rect 1136 128 1184 160)
	(text "NOT" (rect 1 0 22 9)(font "Arial" (font_size 6)))
	(text "inst777" (rect 3 21 39 31)(font "Arial" ))
	(port
		(pt 0 16)
		(input)
		(text "IN" (rect 2 7 14 18)(font "Courier New" (bold))(invisible))
		(text "IN" (rect 2 7 14 18)(font "Courier New" (bold))(invisible))
		(line (pt 0 16)(pt 13 16))
	)
	(port
		(pt 48 16)
		(output)
		(text "OUT" (rect 32 7 50 18)(font "Courier New" (bold))(invisible))
		(text "OUT" (rect 32 7 50 18)(font "Courier New" (bold))(invisible))
		(line (pt 39 16)(pt 48 16))
	)
	(drawing
		(line (pt 13 25)(pt 13 7))
		(line (pt 13 7)(pt 31 16))
		(line (pt 13 25)(pt 31 16))
		(circle (rect 31 12 39 20))
	)
)
(symbol
	(rect 632 824 664 856)
	(text "GND" (rect 8 16 30 25)(font "Arial" (font_size 6)))
	(text "inst666" (rect 3 21 39 31)(font "Arial" )(invisible))
	(port
		(pt 16 0)
		(output)
		(text "1" (rect 18 0 25 11)(font "Courier New" (bold))(invisible))
		(text "1" (rect 18 0 25 11)(font "Courier New" (bold))(invisible))
		(line (pt 16 8)(pt 16 0))
	)
	(drawing
		(line (pt 8 8)(pt 16 16))
		(line (pt 16 16)(pt 24 8))
		(line (pt 8 8)(pt 24 8))
	)
)
(symbol
	(rect 32 560 80 592)
	(text "NOT" (rect 1 0 22 9)(font "Arial" (font_size 6)))
	(text "inst111" (rect 3 21 39 31)(font "Arial" ))
	(port
		(pt 0 16)
		(input)
		(text "IN" (rect 2 7 14 18)(font "Courier New" (bold))(invisible))
		(text "IN" (rect 2 7 14 18)(font "Courier New" (bold))(invisible))
		(line (pt 0 16)(pt 13 16))
	)
	(port
		(pt 48 16)
		(output)
		(text "OUT" (rect 32 7 50 18)(font "Courier New" (bold))(invisible))
		(text "OUT" (rect 32 7 50 18)(font "Courier New" (bold))(invisible))
		(line (pt 39 16)(pt 48 16))
	)
	(drawing
		(line (pt 13 25)(pt 13 7))
		(line (pt 13 7)(pt 31 16))
		(line (pt 13 25)(pt 31 16))
		(circle (rect 31 12 39 20))
	)
)
(symbol
	(rect 664 768 712 800)
	(text "TRI" (rect 1 0 17 9)(font "Arial" (font_size 6)))
	(text "inst123" (rect 3 21 39 31)(font "Arial" ))
	(port
		(pt 0 16)
		(input)
		(text "IN" (rect 2 7 14 18)(font "Courier New" (bold))(invisible))
		(text "IN" (rect 2 7 14 18)(font "Courier New" (bold))(invisible))
		(line (pt 0 16)(pt 14 16))
	)
	(port
		(pt 24 0)
		(input)
		(text "OE" (rect 26 0 38 11)(font "Courier New" (bold))(invisible))
		(text "OE" (rect 26 0 38 11)(font "Courier New" (bold))(invisible))
		(line (pt 24 12)(pt 24 0))
	)
	(port
		(pt 48 16)
		(output)
		(text "OUT" (rect 32 7 50 18)(font "Courier New" (bold))(invisible))
		(text "OUT" (rect 32 7 50 18)(font "Courier New" (bold))(invisible))
		(line (pt 32 16)(pt 48 16))
	)
	(drawing
		(line (pt 14 25)(pt 14 7))
		(line (pt 14 25)(pt 32 16))
		(line (pt 14 7)(pt 32 16))
	)
)
(symbol
	(rect 32 600 80 632)
	(text "NOT" (rect 1 0 22 9)(font "Arial" (font_size 6)))
	(text "inst2" (rect 3 21 26 33)(font "Intel Clear" ))
	(port
		(pt 0 16)
		(input)
		(text "IN" (rect 2 7 14 18)(font "Courier New" (bold))(invisible))
		(text "IN" (rect 2 7 14 18)(font "Courier New" (bold))(invisible))
		(line (pt 0 16)(pt 13 16))
	)
	(port
		(pt 48 16)
		(output)
		(text "OUT" (rect 32 7 50 18)(font "Courier New" (bold))(invisible))
		(text "OUT" (rect 32 7 50 18)(font "Courier New" (bold))(invisible))
		(line (pt 39 16)(pt 48 16))
	)
	(drawing
		(line (pt 13 25)(pt 13 7))
		(line (pt 13 7)(pt 31 16))
		(line (pt 13 25)(pt 31 16))
		(circle (rect 31 12 39 20))
	)
)
(symbol
	(rect 136 528 200 608)
	(text "OR4" (rect 1 0 21 9)(font "Arial" (font_size 6)))
	(text "inst1231" (rect 3 69 45 79)(font "Arial" ))
	(port
		(pt 0 16)
		(input)
		(text "IN1" (rect 2 7 20 18)(font "Courier New" (bold))(invisible))
		(text "IN1" (rect 2 7 20 18)(font "Courier New" (bold))(invisible))
		(line (pt 0 16)(pt 13 16))
	)
	(port
		(pt 0 48)
		(input)
		(text "IN3" (rect 2 39 20 50)(font "Courier New" (bold))(invisible))
		(text "IN3" (rect 2 39 20 50)(font "Courier New" (bold))(invisible))
		(line (pt 0 48)(pt 15 48))
	)
	(port
		(pt 0 64)
		(input)
		(text "IN4" (rect 2 55 20 66)(font "Courier New" (bold))(invisible))
		(text "IN4" (rect 2 55 20 66)(font "Courier New" (bold))(invisible))
		(line (pt 0 64)(pt 13 64))
	)
	(port
		(pt 0 32)
		(input)
		(text "IN2" (rect 2 23 20 34)(font "Courier New" (bold))(invisible))
		(text "IN2" (rect 2 23 20 34)(font "Courier New" (bold))(invisible))
		(line (pt 0 32)(pt 15 32))
	)
	(port
		(pt 64 40)
		(output)
		(text "OUT" (rect 48 31 66 42)(font "Courier New" (bold))(invisible))
		(text "OUT" (rect 48 31 66 42)(font "Courier New" (bold))(invisible))
		(line (pt 48 40)(pt 64 40))
	)
	(drawing
		(line (pt 13 67)(pt 13 51))
		(line (pt 25 52)(pt 13 52))
		(line (pt 13 12)(pt 13 29))
		(line (pt 13 29)(pt 25 29))
		(arc (pt 7 45)(pt 7 35)(rect -14 24 19 57))
		(arc (pt 49 40)(pt 25 29)(rect -6 29 57 92))
		(arc (pt 25 51)(pt 49 40)(rect -6 -11 57 52))
	)
)
(symbol
	(rect 632 728 680 760)
	(text "NOT" (rect 1 0 22 9)(font "Arial" (font_size 6)))
	(text "inst" (rect 3 21 21 31)(font "Arial" ))
	(port
		(pt 0 16)
		(input)
		(text "IN" (rect 2 7 14 18)(font "Courier New" (bold))(invisible))
		(text "IN" (rect 2 7 14 18)(font "Courier New" (bold))(invisible))
		(line (pt 0 16)(pt 13 16))
	)
	(port
		(pt 48 16)
		(output)
		(text "OUT" (rect 32 7 50 18)(font "Courier New" (bold))(invisible))
		(text "OUT" (rect 32 7 50 18)(font "Courier New" (bold))(invisible))
		(line (pt 39 16)(pt 48 16))
	)
	(drawing
		(line (pt 13 25)(pt 13 7))
		(line (pt 13 7)(pt 31 16))
		(line (pt 13 25)(pt 31 16))
		(circle (rect 31 12 39 20))
	)
)
(connector
	(pt 1208 144)
	(pt 1184 144)
)
(connector
	(pt 1112 144)
	(pt 1136 144)
)
(connector
	(text "CLK_48MHz" (rect 570 208 631 218)(font "Arial" ))
	(pt 576 224)
	(pt 640 224)
)
(connector
	(pt 616 416)
	(pt 592 416)
)
(connector
	(pt 1152 688)
	(pt 1160 688)
)
(connector
	(pt 1208 688)
	(pt 1216 688)
)
(connector
	(pt 1080 688)
	(pt 1080 640)
)
(connector
	(pt 1216 656)
	(pt 1224 656)
)
(connector
	(pt 1216 688)
	(pt 1216 656)
)
(connector
	(pt 1080 640)
	(pt 1224 640)
)
(connector
	(text "q[24]" (rect 954 672 979 682)(font "Arial" ))
	(pt 944 688)
	(pt 1008 688)
)
(connector
	(text "q[25..0]" (rect 890 632 928 642)(font "Arial" ))
	(pt 880 648)
	(pt 928 648)
	(bus)
)
(connector
	(pt 736 656)
	(pt 720 656)
)
(connector
	(text "q[25]" (rect 634 640 659 650)(font "Arial" ))
	(pt 672 656)
	(pt 624 656)
)
(connector
	(pt 1072 688)
	(pt 1080 688)
)
(connector
	(pt 1080 688)
	(pt 1088 688)
)
(connector
	(text "q[12]" (rect 954 688 979 698)(font "Arial" ))
	(pt 944 704)
	(pt 1008 704)
)
(connector
	(pt 1008 704)
	(pt 1088 704)
)
(connector
	(text "USB_HUB_RESETn" (rect 1298 632 1398 642)(font "Arial" ))
	(pt 1288 648)
	(pt 1424 648)
)
(connector
	(text "CLK_48MHz" (rect 666 608 727 618)(font "Arial" ))
	(pt 736 624)
	(pt 656 624)
)
(connector
	(text "CLK_48MHz" (rect 970 440 1031 450)(font "Arial" ))
	(pt 1040 456)
	(pt 960 456)
)
(connector
	(text "LED[25..0]" (rect 1194 464 1248 474)(font "Arial" ))
	(pt 1184 480)
	(pt 1264 480)
	(bus)
)
(connector
	(pt 592 400)
	(pt 592 416)
)
(connector
	(pt 616 400)
	(pt 592 400)
)
(connector
	(pt 592 400)
	(pt 584 400)
)
(connector
	(pt 272 240)
	(pt 288 240)
)
(connector
	(text "FPGA_nCONFIG" (rect 760 768 837 780)(font "Intel Clear" ))
	(pt 712 784)
	(pt 832 784)
)
(connector
	(text "FPGA_CONF_DONE" (rect 914 472 1010 484)(font "Intel Clear" ))
	(pt 896 488)
	(pt 1040 488)
)
(connector
	(pt 296 568)
	(pt 200 568)
)
(connector
	(text "VME_RESETn" (rect -80 560 -14 572)(font "Intel Clear" ))
	(pt 32 576)
	(pt -88 576)
)
(connector
	(pt 80 616)
	(pt 120 616)
)
(connector
	(pt 120 616)
	(pt 120 592)
)
(connector
	(pt 120 592)
	(pt 136 592)
)
(connector
	(text "LED[24]" (rect -96 520 -55 530)(font "Arial" ))
	(pt 96 536)
	(pt -90 536)
)
(connector
	(pt 136 544)
	(pt 120 544)
)
(connector
	(pt 80 576)
	(pt 120 576)
)
(connector
	(pt 120 576)
	(pt 136 576)
)
(connector
	(pt 120 560)
	(pt 136 560)
)
(connector
	(pt 120 544)
	(pt 120 560)
)
(connector
	(pt 120 560)
	(pt 120 576)
)
(connector
	(text "FPGA_CONF_DONE" (rect -83 600 13 612)(font "Intel Clear" ))
	(pt 32 616)
	(pt -88 616)
)
(connector
	(pt 680 744)
	(pt 688 744)
)
(connector
	(pt 688 744)
	(pt 688 768)
)
(connector
	(pt 632 744)
	(pt 624 744)
)
(connector
	(pt 624 744)
	(pt 624 784)
)
(connector
	(text "VME_RESETn" (rect 521 768 587 780)(font "Intel Clear" ))
	(pt 528 784)
	(pt 624 784)
)
(connector
	(pt 624 784)
	(pt 664 784)
)
(junction (pt 1080 688))
(junction (pt 1008 704))
(junction (pt 592 400))
(junction (pt 120 576))
(junction (pt 120 560))
(junction (pt 624 784))
(text "VME Interface  3.3V" (rect 288 128 453 145)(font "Arial" (font_size 12)))
(text "Module Select Switches" (rect 264 624 461 641)(font "Arial" (font_size 12)))
(text "FPGA nConfig & co" (rect 232 720 396 737)(font "Arial" (font_size 12)))
(rectangle (rect 216 120 480 584)(color 0 0 255)(line_width 2))
(rectangle (rect 232 608 480 680)(color 0 0 255)(line_width 2))
(rectangle (rect 920 288 1168 344)(color 0 0 255)(line_width 2))
(rectangle (rect 528 200 864 296)(color 0 0 255)(line_width 2))
(rectangle (rect 920 120 1400 264)(color 0 0 255)(line_width 2))
(rectangle (rect 528 120 776 176)(color 0 0 255)(line_width 2))
(rectangle (rect 528 312 864 472)(color 0 0 255)(line_width 2))
(rectangle (rect 216 704 464 840)(color 0 0 255)(line_width 2))
